<?xml version="1.0" encoding="UTF-8" standalone="no"?><svg xmlns="http://www.w3.org/2000/svg" xmlns:xlink="http://www.w3.org/1999/xlink" contentScriptType="application/ecmascript" contentStyleType="text/css" height="838px" preserveAspectRatio="none" style="width:521px;height:838px;background:#FFFFFF;" version="1.1" viewBox="0 0 521 838" width="521px" zoomAndPan="magnify"><defs><filter height="300%" id="f2e0mb6313eol" width="300%" x="-1" y="-1"><feGaussianBlur result="blurOut" stdDeviation="2.0"/><feColorMatrix in="blurOut" result="blurOut2" type="matrix" values="0 0 0 0 0 0 0 0 0 0 0 0 0 0 0 0 0 0 .4 0"/><feOffset dx="4.0" dy="4.0" in="blurOut2" result="blurOut3"/><feBlend in="SourceGraphic" in2="blurOut3" mode="normal"/></filter><filter height="1" id="b2e0mb6313eol0" width="1" x="0" y="0"><feFlood flood-color="#FF0000" result="flood"/><feComposite in="SourceGraphic" in2="flood" operator="over"/></filter><filter height="1" id="b2e0mb6313eol1" width="1" x="0" y="0"><feFlood flood-color="#008000" result="flood"/><feComposite in="SourceGraphic" in2="flood" operator="over"/></filter><filter height="1" id="b2e0mb6313eol2" width="1" x="0" y="0"><feFlood flood-color="#FFA500" result="flood"/><feComposite in="SourceGraphic" in2="flood" operator="over"/></filter></defs><g><!--MD5=[57aa39a0ca730f1234cbbab653dce15a]
cluster it_system_batcave_management_system--><rect fill="#FFFFFF" height="628" style="stroke:#444444;stroke-width:1.0;stroke-dasharray:7.0,7.0;" width="508" x="7" y="119"/><image height="16" width="16" x="495" xlink:href="data:image/png;base64,iVBORw0KGgoAAAANSUhEUgAAABAAAAAQCAYAAAAf8/9hAAAAYUlEQVR4Xs2QMQrAMAzE8v//5H0uHgJGh0qWQg+0mNMNXuuj1CWa2lWvdCckg7IOsHSKvOmAQdkGZkIg3QnJoKwDLJ0ibzpgULaBmRBIdyjNhEC6Q2kmBNIdSjPxB+EHeQBmQWts/gRraQAAAABJRU5ErkJggg==" y="124"/><text fill="#444444" font-family="sans-serif" font-size="16" font-weight="bold" lengthAdjust="spacing" textLength="266" x="128" y="150.8516">BatCave Management System</text><!--MD5=[095075160699b6b6b346b9436aeb56b1]
entity it_container_nemesis_database--><rect fill="#B0C4DE" filter="url(#f2e0mb6313eol)" height="125.7969" style="stroke:#000000;stroke-width:1.0;" width="260" x="23" y="605"/><image height="16" width="16" x="258" xlink:href="data:image/png;base64,iVBORw0KGgoAAAANSUhEUgAAABAAAAAQCAYAAAAf8/9hAAAAU0lEQVR4XtWNQQoAIAzD9v//+D0nHgajGvUiaCGX0WZml1IPwdTi7it6ZxgROkaBlqKoNxQQOiZBznS0EwyfAx2jQEtR1BsKCB2TIGc6+kxwyANpzYhrKPLnjFMAAAAASUVORK5CYII=" y="615"/><text fill="#000000" font-family="sans-serif" font-size="14" lengthAdjust="spacing" textLength="130" x="88" y="642.9951">Nemesis Database</text><text fill="#000000" font-family="sans-serif" font-size="14" lengthAdjust="spacing" textLength="0" x="155" y="659.292"/><text fill="#000000" font-family="sans-serif" font-size="12" lengthAdjust="spacing" textLength="137" x="84.5" y="673.7324">[database: MongoDB]</text><text fill="#000000" font-family="sans-serif" font-size="14" lengthAdjust="spacing" textLength="0" x="155" y="689.5576"/><text fill="#000000" font-family="sans-serif" font-size="14" lengthAdjust="spacing" textLength="0" x="37" y="705.8545"/><text fill="#000000" font-family="sans-serif" font-size="10" lengthAdjust="spacing" textLength="233" x="37" y="706.7979">A huge database with all the files of supervillains</text><text fill="#000000" font-family="sans-serif" font-size="10" lengthAdjust="spacing" textLength="82" x="112" y="718.4385">around the world</text><!--MD5=[4824fdca78d04af54690ba3342611717]
entity it_container_nemesis_microservice--><rect fill="#B0C4DE" filter="url(#f2e0mb6313eol)" height="114.1563" style="stroke:#008000;stroke-width:5.0;" width="221" x="22.5" y="394"/><image height="16" width="16" x="218.5" xlink:href="data:image/png;base64,iVBORw0KGgoAAAANSUhEUgAAABAAAAAQCAYAAAAf8/9hAAAAU0lEQVR4XtWNQQoAIAzD9v//+D0nHgajGvUiaCGX0WZml1IPwdTi7it6ZxgROkaBlqKoNxQQOiZBznS0EwyfAx2jQEtR1BsKCB2TIGc6+kxwyANpzYhrKPLnjFMAAAAASUVORK5CYII=" y="404"/><text fill="#000000" font-family="sans-serif" font-size="14" lengthAdjust="spacing" textLength="150" x="58" y="431.9951">Nemesis Microservice</text><text fill="#000000" font-family="sans-serif" font-size="14" lengthAdjust="spacing" textLength="0" x="135" y="448.292"/><text fill="#000000" font-family="sans-serif" font-size="12" lengthAdjust="spacing" textLength="201" x="32.5" y="462.7324">[microservice: Kubernetes, Java]</text><text fill="#000000" font-family="sans-serif" font-size="14" lengthAdjust="spacing" textLength="0" x="135" y="478.5576"/><text fill="#000000" font-family="sans-serif" font-size="14" lengthAdjust="spacing" textLength="0" x="39" y="494.8545"/><text fill="#000000" font-family="sans-serif" font-size="10" lengthAdjust="spacing" textLength="192" x="39" y="495.7979">The single point of truth for supervillains</text><!--MD5=[a1846a1d0f713b0434f707646b73d676]
entity it_container_batmobile_platform_rotation_microservice--><rect fill="#B0C4DE" filter="url(#f2e0mb6313eol)" height="130.4531" style="stroke:#000000;stroke-width:1.0;" width="221" x="278.5" y="386"/><image height="16" width="16" x="474.5" xlink:href="data:image/png;base64,iVBORw0KGgoAAAANSUhEUgAAABAAAAAQCAYAAAAf8/9hAAAAU0lEQVR4XtWNQQoAIAzD9v//+D0nHgajGvUiaCGX0WZml1IPwdTi7it6ZxgROkaBlqKoNxQQOiZBznS0EwyfAx2jQEtR1BsKCB2TIGc6+kxwyANpzYhrKPLnjFMAAAAASUVORK5CYII=" y="396"/><text fill="#000000" font-family="sans-serif" font-size="14" lengthAdjust="spacing" textLength="191" x="291.5" y="423.9951">Batmobile Platform Rotation</text><text fill="#000000" font-family="sans-serif" font-size="14" lengthAdjust="spacing" textLength="86" x="346" y="440.292">Microservice</text><text fill="#000000" font-family="sans-serif" font-size="14" lengthAdjust="spacing" textLength="0" x="391" y="456.5889"/><text fill="#000000" font-family="sans-serif" font-size="12" lengthAdjust="spacing" textLength="201" x="288.5" y="471.0293">[microservice: Kubernetes, Java]</text><text fill="#000000" font-family="sans-serif" font-size="14" lengthAdjust="spacing" textLength="0" x="391" y="486.8545"/><text fill="#000000" font-family="sans-serif" font-size="14" lengthAdjust="spacing" textLength="0" x="314" y="503.1514"/><text fill="#000000" font-family="sans-serif" font-size="10" lengthAdjust="spacing" textLength="154" x="314" y="504.0947">Rotates the Batmobile platform</text><!--MD5=[707471717489b50a8d7c769de1f4c647]
entity bcms_ui--><rect fill="#B0C4DE" filter="url(#f2e0mb6313eol)" height="125.7969" style="stroke:#008000;stroke-width:5.0;" width="263" x="78.5" y="171"/><image height="16" width="16" x="316.5" xlink:href="data:image/png;base64,iVBORw0KGgoAAAANSUhEUgAAABAAAAAQCAYAAAAf8/9hAAAAU0lEQVR4XtWNQQoAIAzD9v//+D0nHgajGvUiaCGX0WZml1IPwdTi7it6ZxgROkaBlqKoNxQQOiZBznS0EwyfAx2jQEtR1BsKCB2TIGc6+kxwyANpzYhrKPLnjFMAAAAASUVORK5CYII=" y="181"/><text fill="#000000" font-family="sans-serif" font-size="14" lengthAdjust="spacing" textLength="118" x="151" y="208.9951">Batcave Terminal</text><text fill="#000000" font-family="sans-serif" font-size="14" lengthAdjust="spacing" textLength="0" x="212" y="225.292"/><text fill="#000000" font-family="sans-serif" font-size="12" lengthAdjust="spacing" textLength="66" x="177" y="239.7324">[UI: React]</text><text fill="#000000" font-family="sans-serif" font-size="14" lengthAdjust="spacing" textLength="0" x="212" y="255.5576"/><text fill="#000000" font-family="sans-serif" font-size="14" lengthAdjust="spacing" textLength="0" x="92.5" y="271.8545"/><text fill="#000000" font-family="sans-serif" font-size="10" lengthAdjust="spacing" textLength="236" x="92.5" y="272.7979">Impressive user interface used to manage every</text><text fill="#000000" font-family="sans-serif" font-size="10" lengthAdjust="spacing" textLength="219" x="100.5" y="284.4385">aspect of the BatCave Management System</text><!--MD5=[68be97f0322746693357fedbd95b3081]
entity actor_bruce_wayne--><rect fill="#FFFFCC" filter="url(#f2e0mb6313eol)" height="51.2969" style="stroke:#000000;stroke-width:1.5;" width="111" x="154.5" y="7"/><image height="16" width="16" x="240.5" xlink:href="data:image/png;base64,iVBORw0KGgoAAAANSUhEUgAAABAAAAAQCAYAAAAf8/9hAAAAT0lEQVR4XmNgwA3+IWGSwb///7f+h2EQH10BPoCimRxDBt4AEKAoDGCAoliAAbI0I9uMjkkGZGlCBgNrAMV+h2kk2RBsGrCJYQX4FGKVAwAsAHdHiTIgRwAAAABJRU5ErkJggg==" y="17"/><text fill="#000000" font-family="sans-serif" font-size="14" lengthAdjust="spacing" textLength="91" x="164.5" y="44.9951">Bruce Wayne</text><!--MD5=[b5a57e75358c6cbbad5ba554304b2036]
link bcms_ui to it_container_nemesis_microservice--><path d="M187.73,297.19 C177.74,325.07 165.97,357.94 155.91,386.03 " fill="none" id="bcms_ui-to-it_container_nemesis_microservice" style="stroke:#000000;stroke-width:1.0;stroke-dasharray:7.0,7.0;"/><polygon fill="#000000" points="153.12,393.82,158.6445,387.3024,152.9968,385.2769,153.12,393.82" style="stroke:#000000;stroke-width:1.0;"/><text fill="#000000" font-family="sans-serif" font-size="12" lengthAdjust="spacing" textLength="90" x="177" y="346.1387">provides UI for</text><!--MD5=[4ca8fb5a05c594bf5af08fc78a6240ab]
link it_container_nemesis_microservice to it_container_nemesis_database--><path d="M138.23,508.21 C140.75,535.27 143.79,568.01 146.46,596.71 " fill="none" id="it_container_nemesis_microservice-to-it_container_nemesis_database" style="stroke:#000000;stroke-width:1.0;stroke-dasharray:7.0,7.0;"/><polygon fill="#000000" points="147.2,604.69,149.4448,596.4461,143.4706,597.0029,147.2,604.69" style="stroke:#000000;stroke-width:1.0;"/><text fill="#000000" font-family="sans-serif" font-size="12" lengthAdjust="spacing" textLength="85" x="146" y="558.1387">fetches villain</text><text fill="#000000" font-family="sans-serif" font-size="12" lengthAdjust="spacing" textLength="71" x="155" y="572.1074">information</text><!--MD5=[e173e694a3c006982e91e5a0b501c651]
link actor_bruce_wayne to bcms_ui--><path d="M210,58.36 C210,84.39 210,126.44 210,162.76 " fill="none" id="actor_bruce_wayne-to-bcms_ui" style="stroke:#000000;stroke-width:1.0;stroke-dasharray:7.0,7.0;"/><polygon fill="#000000" points="210,170.89,213,162.89,207,162.89,210,170.89" style="stroke:#000000;stroke-width:1.0;"/><text fill="#000000" font-family="sans-serif" font-size="12" lengthAdjust="spacing" textLength="30" x="211" y="100.1387">uses</text><!--MD5=[fdf4acc36be82548b1800f84468129ea]
link bcms_ui to it_container_batmobile_platform_rotation_microservice--><path d="M261.77,297.19 C283.19,322.91 308.12,352.86 330.22,379.4 " fill="none" id="bcms_ui-to-it_container_batmobile_platform_rotation_microservice" style="stroke:#000000;stroke-width:1.0;stroke-dasharray:7.0,7.0;"/><polygon fill="#000000" points="335.48,385.71,332.6669,377.6424,328.0558,381.4814,335.48,385.71" style="stroke:#000000;stroke-width:1.0;"/><text fill="#000000" font-family="sans-serif" font-size="12" lengthAdjust="spacing" textLength="107" x="311" y="339.1387">provides rotation</text><text fill="#000000" font-family="sans-serif" font-size="12" lengthAdjust="spacing" textLength="63" x="335" y="353.1074">button for</text><rect fill="#DDDDDD" height="62.8906" rx="5" ry="5" style="stroke:#000000;stroke-width:1.0;" width="253" x="127" y="760"/><text fill="#FF0000" filter="url(#b2e0mb6313eol0)" font-family="sans-serif" font-size="14" lengthAdjust="spacing" textLength="9" x="133" y="779.9951">X</text><text fill="#000000" font-family="sans-serif" font-size="14" lengthAdjust="spacing" textLength="224" x="146" y="779.9951">Removed since last point in time</text><text fill="#008000" filter="url(#b2e0mb6313eol1)" font-family="sans-serif" font-size="14" lengthAdjust="spacing" textLength="9" x="133" y="796.292">X</text><text fill="#000000" font-family="sans-serif" font-size="14" lengthAdjust="spacing" textLength="203" x="146" y="796.292">Added since last point in time</text><text fill="#FFA500" filter="url(#b2e0mb6313eol2)" font-family="sans-serif" font-size="14" lengthAdjust="spacing" textLength="9" x="133" y="812.5889">X</text><text fill="#000000" font-family="sans-serif" font-size="14" lengthAdjust="spacing" textLength="66" x="146" y="812.5889">Phaseout</text><line style="stroke:#000000;stroke-width:1.0;" x1="133" x2="374" y1="767" y2="767"/><line style="stroke:#000000;stroke-width:1.0;" x1="133" x2="374" y1="783.2969" y2="783.2969"/><line style="stroke:#000000;stroke-width:1.0;" x1="133" x2="374" y1="799.5938" y2="799.5938"/><line style="stroke:#000000;stroke-width:1.0;" x1="133" x2="374" y1="815.8906" y2="815.8906"/><line style="stroke:#000000;stroke-width:1.0;" x1="133" x2="133" y1="767" y2="815.8906"/><line style="stroke:#000000;stroke-width:1.0;" x1="142" x2="142" y1="767" y2="815.8906"/><line style="stroke:#000000;stroke-width:1.0;" x1="374" x2="374" y1="767" y2="815.8906"/><!--MD5=[81a708331b39312b4de479e446849e7b]
@startuml
!includeurl https://raw.githubusercontent.com/ebbypeter/Archimate-PlantUML/master/Archimate.puml
!define ICONURL https://raw.githubusercontent.com/tupadr3/plantuml-icon-font-sprites/v2.3.0
!includeurl ICONURL/common.puml
!includeurl ICONURL/font-awesome/bomb.puml
!includeurl ICONURL/font-awesome/chain.puml
!includeurl ICONURL/font-awesome/chain_broken.puml
!includeurl ICONURL/font-awesome-5/check.puml
!includeurl ICONURL/font-awesome/lightbulb_o.puml
!includeurl ICONURL/font-awesome-5/road.puml
!includeurl ICONURL/font-awesome-5/ban.puml
!includeurl ICONURL/font-awesome-5/question.puml
!includeurl ICONURL/font-awesome-5/skull.puml
!includeurl ICONURL/material/add.puml
!includeurl ICONURL/material/edit.puml
!includeurl ICONURL/material/remove.puml

!define DESC_FONT_SIZE 10
!define DESC_FONT_COLOR #CCCCCC
!define ACTIVE #Black
!define UNKNOWN #Black
!define PLANNED #Blue
!define ADDED #Green
!define PHASEOUT #Orange
!define DECOMMISSIONED #Red

sprite $aCapability jar:archimate/strategy-capability
sprite $aFunction jar:archimate/business-function
sprite $aBuildingBlock jar:archimate/function
sprite $aPlatform jar:archimate/component
sprite $aSystem jar:archimate/application-component
sprite $aContainer jar:archimate/application-component
sprite $aMilestone jar:archimate/implementation-plateau
sprite $aProject jar:archimate/implementation-workpackage
sprite $aInteraction jar:archimate/application-interaction
sprite $aDataEntity jar:archimate/application-data-object

skinparam wrapWidth 250


skinparam rectangle<<system>> {
    Shadowing false
    StereotypeFontSize 0
    FontColor #444444
    BorderColor #444444
    BorderStyle dashed
}

skinparam rectangle<<platform>> {
    Shadowing false
    StereotypeFontSize 0
    FontColor #00008B
    BorderColor #00008B
    BorderStyle dotted
}

skinparam rectangle<<integration>> {
    Shadowing false
    StereotypeFontSize 0
    FontColor #444444
    BorderColor #444444
    BorderStyle dashed
}

skinparam rectangle<<strategy-capability>> {
    RoundCorner 25
}

skinparam rectangle<<ACTIVE>> {
    BorderColor ACTIVE
    BorderThickness 1
}

skinparam rectangle<<PLANNED>> {
    BorderColor PLANNED
    BorderThickness 5
}

skinparam rectangle<<ADDED>> {
    BorderColor ADDED
    BorderThickness 5
}

skinparam rectangle<<PHASEOUT>> {
    BorderColor PHASEOUT
    BorderThickness 5
}

skinparam rectangle<<DECOMMISSIONED>> {
    BorderColor DECOMMISSIONED
    BorderThickness 5
}

skinparam rectangle<<UNKNOWN>> {
    BorderColor UNKNOWN
    BorderThickness 1
}


!define Business_Capability_Map_Group(e_alias, e_label) rectangle "==e_label" <<business capability map>> as e_alias
!define Strategy_Capability_Group(e_alias, e_label) rectangle "==e_label" as e_alias <<$aCapability>><<strategy-capability>> #Strategy
!define Business_Function_Group(e_alias, e_label) rectangle "==e_label" as e_alias <<$aFunction>><<business-function>> #Business
!define Platform(e_alias, e_label) rectangle "==e_label" <<$aPlatform>><<platform>> as e_alias
!define System_Context(e_alias, e_label) rectangle "==e_label" <<$aSystem>><<system>> as e_alias
!define BuildingBlock(e_alias, e_label, e_desc, e_lifecycle) rectangle #APPLICATION "e_label\n\n<size:DESC_FONT_SIZE>e_desc</size>" <<$aBuildingBlock>><<e_lifecycle>> as e_alias
!define System(e_alias, e_label, e_desc, e_lifecycle) rectangle #APPLICATION "e_label\n\n<size:TECHN_FONT_SIZE>[system]</size>\n\n <size:DESC_FONT_SIZE>e_desc</size>" <<$aSystem>><<e_lifecycle>> as e_alias
!define Entity(e_alias, e_label, e_desc, e_lifecycle) rectangle #White "e_label\n\n<size:TECHN_FONT_SIZE>[information]</size>\n\n <size:DESC_FONT_SIZE>e_desc</size>" <<$aDataEntity>><<e_lifecycle>> as e_alias
!define Integration(e_alias, e_label, e_desc, e_tech, e_lifecycle) rectangle #APPLICATION "e_label\n\n<size:TECHN_FONT_SIZE>[integration: e_tech]</size>\n\n <size:DESC_FONT_SIZE>e_desc</size>" <<$aInteraction>><<e_lifecycle>> as e_alias
!define Container(e_alias, e_label, e_desc, e_type, e_tech, e_lifecycle) rectangle #LightSteelBlue "e_label\n\n<size:TECHN_FONT_SIZE>[e_type: e_tech]</size>\n\n <size:DESC_FONT_SIZE>e_desc</size>" <<$aContainer>><<e_lifecycle>> as e_alias
!define SWOT(e_alias, e_type, e_desc) note "== e_type ==\n e_desc" as e_alias
!define Lifecycle(e_alias, e_lifecycle, e_desc) note "== lifecyle - e_lifecycle ==\n e_desc" as e_alias
!define Relationship(e_sourceAlias, e_targetAlias, e_label, e_sourceArrow="", e_targetArrow="", e_lifecycle="") e_sourceAlias e_sourceArrow..[e_lifecycle]e_targetArrow e_targetAlias : "e_label"
!define Project(e_alias, e_label, e_desc, e_type) rectangle #IMPLEMENTATION "e_label\n\n<size:TECHN_FONT_SIZE>[e_type]</size>\n\n <size:DESC_FONT_SIZE>e_desc</size>" <<$aProject>> as e_alias
!define ProjectMilestone(e_alias, e_label, e_desc) rectangle #IMPLEMENTATION "e_label\n\n <size:DESC_FONT_SIZE>e_desc</size>" <<$aMilestone>> as e_alias
    System_Context(it_system_batcave_management_system, "BatCave Management System") {
        Container(it_container_nemesis_database, "Nemesis Database", "A huge database with all the files of supervillains around the world", "database", "MongoDB", "ACTIVE")
        Container(it_container_nemesis_microservice, "Nemesis Microservice", "The single point of truth for supervillains", "microservice", "Kubernetes, Java", "ADDED")
        Container(it_container_batmobile_platform_rotation_microservice, "Batmobile Platform Rotation Microservice", "Rotates the Batmobile platform", "microservice", "Kubernetes, Java", "ACTIVE")
        Container(bcms_ui, "Batcave Terminal", "Impressive user interface used to manage every aspect of the BatCave Management System", "UI", "React", "ADDED")
    }


    Business_Actor(actor_bruce_wayne, "Bruce Wayne")




            Rel_Flow(bcms_ui, it_container_nemesis_microservice, "provides UI for")



            Rel_Flow(it_container_nemesis_microservice, it_container_nemesis_database, "fetches villain information")



            Rel_Flow(actor_bruce_wayne, bcms_ui, "uses")



            Rel_Flow(bcms_ui, it_container_batmobile_platform_rotation_microservice, "provides rotation button for")



    legend
    |<back:DECOMMISSIONED><color:DECOMMISSIONED>X</color></back>| Removed since last point in time |
    |<back:ADDED><color:ADDED>X</color></back>| Added since last point in time |
    |<back:PHASEOUT><color:PHASEOUT>X</color></back>| Phaseout |
    endlegend
@enduml

@startuml


skinparam defaultTextAlignment center
skinparam wrapWidth 400
skinparam maxMessageSize 150
skinparam StereotypeAlignment right

skinparam Arrow {
    Color #000000
    FontColor #000000
    FontSize 12
}
skinparam Folder<<grouping>> {
    Shadowing true
    StereotypeFontSize 0
    FontColor #444444
    BorderColor #444444
    BorderStyle dashed
}
skinparam Folder<<group>> {
    Shadowing true
    StereotypeFontSize 0
    FontColor #444444
    BackgroundColor lightgrey
}
skinparam rectangle<<boundary>> {
    Shadowing false
    StereotypeFontSize 0
    FontColor #444444
    BorderColor #444444
    BorderStyle dashed
}
skinparam node {
  StereotypeAlignment right
}
skinparam cloud {
  StereotypeAlignment right
}
skinparam frame {
  StereotypeAlignment right
}
skinparam archimate {
  StereotypeAlignment right
  RoundCorner<<strategy-capability>> 25
  RoundCorner<<strategy-course-of-action>> 25
  RoundCorner<<strategy-value-stream>> 25
  RoundCorner<<business-process>> 25
  RoundCorner<<business-event>> 25
  RoundCorner<<business-function>> 25
  RoundCorner<<business-interaction>> 25
  RoundCorner<<business-event>> 25
  RoundCorner<<business-service>> 25
  RoundCorner<<application-function>> 25
  RoundCorner<<application-interaction>> 25
  RoundCorner<<application-process>> 25
  RoundCorner<<application-event>> 25
  RoundCorner<<application-service>> 25
  RoundCorner<<technology-function>> 25
  RoundCorner<<technology-process>> 25
  RoundCorner<<technology-interaction>> 25
  RoundCorner<<technology-event>> 25
  RoundCorner<<technology-infra-service>> 25
  RoundCorner<<implementation-workpackage>> 25
  RoundCorner<<implementation-event>> 25
  DiagonalCorner<<motivation-stakeholder>> 12
  DiagonalCorner<<motivation-driver>> 12
  DiagonalCorner<<motivation-assessment>> 12
  DiagonalCorner<<motivation-goal>> 12
  DiagonalCorner<<motivation-outcome>> 12
  DiagonalCorner<<motivation-principle>> 12
  DiagonalCorner<<motivation-requirement>> 12
  DiagonalCorner<<motivation-constraint>> 12
}
skinparam usecase {
  BorderColor #000000
}






























hide stereotype
sprite $bomb [48x48/16] {
000000000000000000000000000000000000000000000000
000000000000000000000000000000000000000000000000
000000000000000000000000000000000000000870000000
000000000000000000000000000000000008D20CB02E7000
000000000000000000000000000000000003FE1CB2EE2000
0000000000000000000000000000000000003FDA9EE30000
000000000000000000000000000000000000038008532000
000000000000000000000000000000000000000006FFF400
00000000000000000000000000000000000002E507654000
0000000000000000000000000000000000002EE30FD10000
000000000000000000000000000000000002EE3003FE1000
00000000000000025888863000000450002EE300003F7000
00000000000039EFFFFFFFFFB5008FF902EE300000010000
00000000003CFFFFFFFFFFFFFFDAFFFFAEE2000000000000
0000000009FFFFFFFFFFFFFFFFFFFFFFFF30000000000000
00000001DFFFFB7CFFFFFFFFFFFFFFFFFF90000000000000
0000001EFFFC4001FFFFFFFFFFFFFFFFFFF8000000000000
000000DFFF900001FFFFFFFFFFFFFFFFFFFE000000000000
00000AFFF700005DFFFFFFFFFFFFFFFFFFF8000000000000
00005FFF80002CFFFFFFFFFFFFFFFFFFFF90000000000000
0000DFFB0003EFFFFFFFFFFFFFFFFFFFFF20000000000000
0005FFF2002FFFFFFFFFFFFFFFFFFFFFFF90000000000000
000CFF9000DFFFFFFFFFFFFFFFFFFFFFFFF0000000000000
001FFF3006FFFFFFFFFFFFFFFFFFFFFFFFF5000000000000
006FFF601EFFFFFFFFFFFFFFFFFFFFFFFFFA000000000000
009FFFFCEFFFFFFFFFFFFFFFFFFFFFFFFFFD000000000000
00BFFFFFFFFFFFFFFFFFFFFFFFFFFFFFFFFF000000000000
00CFFFFFFFFFFFFFFFFFFFFFFFFFFFFFFFFF000000000000
00DFFFFFFFFFFFFFFFFFFFFFFFFFFFFFFFFF100000000000
00CFFFFFFFFFFFFFFFFFFFFFFFFFFFFFFFFF000000000000
00BFFFFFFFFFFFFFFFFFFFFFFFFFFFFFFFFF000000000000
008FFFFFFFFFFFFFFFFFFFFFFFFFFFFFFFFC000000000000
005FFFFFFFFFFFFFFFFFFFFFFFFFFFFFFFF9000000000000
001FFFFFFFFFFFFFFFFFFFFFFFFFFFFFFFF4000000000000
000AFFFFFFFFFFFFFFFFFFFFFFFFFFFFFFE0000000000000
0004FFFFFFFFFFFFFFFFFFFFFFFFFFFFFF80000000000000
0000CFFFFFFFFFFFFFFFFFFFFFFFFFFFFF10000000000000
00003FFFFFFFFFFFFFFFFFFFFFFFFFFFF600000000000000
000008FFFFFFFFFFFFFFFFFFFFFFFFFFC000000000000000
000000BFFFFFFFFFFFFFFFFFFFFFFFFD1000000000000000
0000000BFFFFFFFFFFFFFFFFFFFFFFE20000000000000000
000000009FFFFFFFFFFFFFFFFFFFFC100000000000000000
0000000005EFFFFFFFFFFFFFFFFF80000000000000000000
000000000018FFFFFFFFFFFFFFA200000000000000000000
00000000000006BFFFFFFFFC710000000000000000000000
000000000000000024554200000000000000000000000000
000000000000000000000000000000000000000000000000
000000000000000000000000000000000000000000000000
}


skinparam folderBackgroundColor<<FA BOMB>> White
sprite $chain [48x48/16] {
000000000000000000000000000000000000000000000000
000000000000000000000000000000000000000000000000
000000000000256620000000000000000000000000000000
00000000002BFFFFFD400000000000000000000000000000
0000000004FFFFFFFFF60000000000000000000000000000
000000004FFFFFFFFFFF6000000000000000000000000000
00000004FFFFFFFFFFFFF600000000000000000000000000
0000004FFFFFF736FFFFFF60000000000000000000000000
000003FFFFFF40003EFFFFF6000000000000000000000000
00000EFFFFF4000003EFFFFF600000000000000000000000
00007FFFFF400000003EFFFFF30000000000000000000000
0000BFFFF50000000003EFFFFC0000000000000000000000
0000DFFFD000000000003FFFFF2000000000000000000000
0000DFFFD0000000000006FFFF6000000000000000000000
0000BFFFF5000000047202FFFF7000000000000000000000
00006FFFFF5000007FFF56FFFF6000000000000000000000
00000EFFFFF50000DFFFFFFFFF2000000000000000000000
000003FFFFFF5000CFFFFFFFFC0000000000000000000000
0000004FFFFFF5003FFFFFFFF30000000000000000000000
00000004FFFFFF5008FFFFFF900002676200000000000000
000000004FFFFFFDDFFFFFFFF503CFFFFFC3000000000000
0000000004FFFFFFFFFFFFFFFF9FFFFFFFFF500000000000
00000000004FFFFFFFFFFFFFFFFFFFFFFFFFF60000000000
000000000003EFFFFFFE44FFFFFFFFFFFFFFFF6000000000
00000000000006BDEC71004FFFFFFF636FFFFFF600000000
00000000000000000000004FFFFFFF5003FFFFFF60000000
0000000000000000000001EFFFFFFFF2003FFFFFF5000000
0000000000000000000007FFFFFFFFF70003FFFFFF300000
000000000000000000000CFFFF7FFFF400003FFFFFC00000
000000000000000000000EFFFC03CD70000003FFFFF20000
000000000000000000000EFFFC0000000000007FFFF50000
000000000000000000000BFFFF5000000000003FFFF60000
0000000000000000000007FFFFF400000000007FFFF50000
0000000000000000000000EFFFFF4000000004FFFFF20000
00000000000000000000003FFFFFF40000004FFFFFB00000
000000000000000000000004FFFFFF400004FFFFFF200000
0000000000000000000000004FFFFFF5005FFFFFF4000000
00000000000000000000000004FFFFFFDDFFFFFF40000000
000000000000000000000000004FFFFFFFFFFFF400000000
0000000000000000000000000005FFFFFFFFFF4000000000
00000000000000000000000000003EFFFFFFE30000000000
0000000000000000000000000000006BDDB6000000000000
000000000000000000000000000000000000000000000000
000000000000000000000000000000000000000000000000
000000000000000000000000000000000000000000000000
000000000000000000000000000000000000000000000000
000000000000000000000000000000000000000000000000
000000000000000000000000000000000000000000000000
}


skinparam folderBackgroundColor<<FA CHAIN>> White
sprite $chain_broken [48x48/16] {
000000000000000000000000000000000000000000000000
000000000000000000000000000000000000000000000000
000000000000256620000000000008600000000000000000
00000000002BFFFFFD40000000000DB00000000000000000
0000000004FFFFFFFFF6000000000DB00000000000000000
000000004FFFFFFFFFFF600000000DB00000000860000000
00000004FFFFFFFFFFFFF60000000DB00000009F80000000
0000004FFFFFF736FFFFFF6000000DB0000009F900000000
000003FFFFFF40003EFFFFF600000DB000009F9000000000
00000EFFFFF4000003EFFFFF60000DB00009F90000000000
00007FFFFF400000003EFFFFF6000CB0009F900000000000
0000BFFFF50000000003EFFFFF60032009F9000000000000
0000DFFFD000000000003EFFFFF600000B80000000000000
0000DFFFD0000000000003EFFFFF30000000000000000000
0000BFFFF500000000000036532100000000000000000000
00006FFFFF5000000000000000000000002BBBBBBBB70000
00000EFFFFF500000000000000000000003CCCCCCCC80000
000003FFFFFF500000000000000000003000000000000000
0000004FFFFFF5000000000000000001F500000000000000
00000004FFFFFF500000000000000002FF60000000000000
000000004FFFFFF50000000000000004FFF6000000000000
0000000004FFFFFF0000000000000005FFFF600000000000
00000000004FFFFE0000000000000006FFFFF60000000000
000000000004FFFD0000000000000003FFFFFF6000000000
0000000000004FFC00000000000000003FFFFFF600000000
00000000000004FB000000000000000003FFFFFF60000000
00000000000000370000000000000000003FFFFFF5000000
000056666666300000000000000000000003FFFFFF300000
0002FFFFFFFFD000000000000000000000003FFFFFC00000
00001222222200000000000000000000000003FFFFF20000
00000000000000000008BCDEF40000000000007FFFF50000
00000000000006200003FFFFFF4000000000003FFFF60000
0000000000009F6000004FFFFFF400000000007FFFF50000
000000000009F9001E3004FFFFFF4000000004FFFFF20000
00000000009F90002F60004FFFFFF40000004FFFFFB00000
0000000009F900002F600004FFFFFF400004FFFFFF200000
000000009F9000002F6000004FFFFFF5005FFFFFF4000000
00000009F90000002F60000004FFFFFFDDFFFFFF40000000
0000001F900000002F600000005FFFFFFFFFFFF400000000
00000001000000002F6000000005FFFFFFFFFF4000000000
00000000000000002F60000000003EFFFFFFE30000000000
00000000000000001F5000000000006BDDB6000000000000
000000000000000002000000000000000000000000000000
000000000000000000000000000000000000000000000000
000000000000000000000000000000000000000000000000
000000000000000000000000000000000000000000000000
000000000000000000000000000000000000000000000000
000000000000000000000000000000000000000000000000
}


skinparam folderBackgroundColor<<FA CHAIN_BROKEN>> White
sprite $check [48x48/16] {
000000000000000000000000000000000000000000000000
000000000000000000000000000000000000000000000000
000000000000000000000000000000000000000000000000
000000000000000000000000000000000000000000000000
000000000000000000000000000000000000000000000000
000000000000000000000000000000000000000000000000
000000000000000000000000000000000000000000000000
000000000000000000000000000000000000000340000000
000000000000000000000000000000000000009FFC100000
00000000000000000000000000000000000009FFFFD10000
0000000000000000000000000000000000009FFFFFFD1000
000000000000000000000000000000000009FFFFFFFFC000
00000000000000000000000000000000009FFFFFFFFFF400
0000000000000000000000000000000009FFFFFFFFFFF300
000000000000000000000000000000009FFFFFFFFFFF9000
00000000000000000000000000000009FFFFFFFFFFF90000
0000000000000000000000000000009FFFFFFFFFFF900000
000000000000000000000000000009FFFFFFFFFFF9000000
00000048300000000000000000009FFFFFFFFFFF90000000
000008FFF5000000000000000009FFFFFFFFFFF900000000
00009FFFFF50000000000000009FFFFFFFFFFF9000000000
0009FFFFFFF500000000000009FFFFFFFFFFF90000000000
007FFFFFFFFF5000000000009FFFFFFFFFFF900000000000
00CFFFFFFFFFF50000000009FFFFFFFFFFF9000000000000
009FFFFFFFFFFF500000009FFFFFFFFFFF90000000000000
001DFFFFFFFFFFF5000009FFFFFFFFFFF900000000000000
0001DFFFFFFFFFFF50009FFFFFFFFFFF9000000000000000
00001DFFFFFFFFFFF509FFFFFFFFFFF90000000000000000
000001DFFFFFFFFFFFBFFFFFFFFFFF900000000000000000
0000001DFFFFFFFFFFFFFFFFFFFFF9000000000000000000
00000001DFFFFFFFFFFFFFFFFFFF90000000000000000000
000000001DFFFFFFFFFFFFFFFFF900000000000000000000
0000000001DFFFFFFFFFFFFFFF9000000000000000000000
00000000001DFFFFFFFFFFFFF90000000000000000000000
000000000001DFFFFFFFFFFF900000000000000000000000
0000000000001DFFFFFFFFF9000000000000000000000000
00000000000001DFFFFFFF90000000000000000000000000
000000000000001DFFFFF900000000000000000000000000
0000000000000001DFFF9000000000000000000000000000
00000000000000001AD70000000000000000000000000000
000000000000000000000000000000000000000000000000
000000000000000000000000000000000000000000000000
000000000000000000000000000000000000000000000000
000000000000000000000000000000000000000000000000
000000000000000000000000000000000000000000000000
000000000000000000000000000000000000000000000000
000000000000000000000000000000000000000000000000
000000000000000000000000000000000000000000000000
}


skinparam folderBackgroundColor<<FA5 CHECK>> White
sprite $lightbulb_o [48x48/16] {
000000000000000000000000000000000000000000000000
000000000000000000000000000000000000000000000000
000000000000000000000000000000000000000000000000
000000000000000000000000000000000000000000000000
000000000000000000000000000000000000000000000000
0000000000000000000048ABB97300000000000000000000
0000000000000000029FFFFFFFFFE7100000000000000000
00000000000000008FFFFFFFFFFFFFF60000000000000000
000000000000001DFFFFEA7567BFFFFFA000000000000000
00000000000001DFFFC5000000007EFFFA00000000000000
0000000000000BFFF7000000000001BFFF60000000000000
0000000000005FFF600000000000000AFFF1000000000000
000000000000BFFA00000008C9400000EFF7000000000000
000000000001FFF200000007CFFC10006FFD000000000000
000000000004FFC000000000006FC0001FFF000000000000
000000000006FFA0000000000006F2000FFF200000000000
000000000007FFA0000000000001B1000EFF200000000000
000000000005FFC000000000000000001FFF100000000000
000000000002FFF100000000000000006FFD000000000000
000000000000DFF90000000000000000DFF9000000000000
0000000000006FFF500000000000000AFFF1000000000000
0000000000000CFFF40000000000008FFF70000000000000
00000000000001EFFF200000000006FFFB00000000000000
000000000000003FFFD0000000002FFFD000000000000000
0000000000000004FFF700000000CFFE1000000000000000
0000000000000000AFFF10000004FFF50000000000000000
00000000000000001EFF7000000BFFB00000000000000000
000000000000000008FFC000001FFF300000000000000000
000000000000000002FFF000004FFE000000000000000000
000000000000000002FFFEDDDDEFFD000000000000000000
00000000000000000DFFFFFFFFFFFF900000000000000000
00000000000000000FFFFFFFFFFFFFC00000000000000000
00000000000000000CFFFFFFFFFFFF800000000000000000
00000000000000000CFFFFFFFFFFFF700000000000000000
00000000000000000FFFFFFFFFFFFFC00000000000000000
00000000000000000CFFFFFFFFFFFF900000000000000000
000000000000000002FFFFFFFFFFFE000000000000000000
000000000000000004FFFFFFFFFFFF000000000000000000
000000000000000001FFFFFFFFFFFD000000000000000000
0000000000000000005DFFFFFFFFB2000000000000000000
000000000000000000005FFFFFF100000000000000000000
0000000000000000000006FFFD3000000000000000000000
000000000000000000000003200000000000000000000000
000000000000000000000000000000000000000000000000
000000000000000000000000000000000000000000000000
000000000000000000000000000000000000000000000000
000000000000000000000000000000000000000000000000
000000000000000000000000000000000000000000000000
}


skinparam folderBackgroundColor<<FA LIGHTBULB_O>> White
sprite $road [48x48/16] {
000000000000000000000000000000000000000000000000
000000000000000000000000000000000000000000000000
000000000000000000000000000000000000000000000000
000000000000000000000000000000000000000000000000
000000000000000000000000000000000000000000000000
000000000000000000000000000000000000000000000000
000000000000000000000000000000000000000000000000
000000000000000000000000000000000000000000000000
000000000000000000000000000000000000000000000000
000000000000028999999920069999999600000000000000
0000000000000EFFFFFFFF2009FFFFFFFF70000000000000
0000000000007FFFFFFFFF633CFFFFFFFFE0000000000000
000000000000DFFFFFFFFFFFFFFFFFFFFFF6000000000000
000000000005FFFFFFFFFFFFFFFFFFFFFFFD000000000000
00000000000CFFFFFFFFFD3336FFFFFFFFFF400000000000
00000000003FFFFFFFFFF90001FFFFFFFFFFB00000000000
0000000000AFFFFFFFFFF80000FFFFFFFFFFF20000000000
0000000001FFFFFFFFFFF60000EFFFFFFFFFF90000000000
0000000008FFFFFFFFFFF80001EFFFFFFFFFFF1000000000
000000000EFFFFFFFFFFFFFFFFFFFFFFFFFFFF7000000000
000000006FFFFFFFFFFFFFFFFFFFFFFFFFFFFFE000000000
00000000DFFFFFFFFFFFF96666DFFFFFFFFFFFF500000000
00000004FFFFFFFFFFFFE000006FFFFFFFFFFFFC00000000
0000000BFFFFFFFFFFFFC000003FFFFFFFFFFFFF30000000
0000002FFFFFFFFFFFFFA000002FFFFFFFFFFFFFA0000000
0000009FFFFFFFFFFFFF8000000FFFFFFFFFFFFFF1000000
000000FFFFFFFFFFFFFF9000001FFFFFFFFFFFFFF8000000
000007FFFFFFFFFFFFFFFA9999DFFFFFFFFFFFFFFE000000
00000DFFFFFFFFFFFFFFFFFFFFFFFFFFFFFFFFFFFF600000
00005FFFFFFFFFFFFFFFFCCCCCDFFFFFFFFFFFFFFFD00000
0000CFFFFFFFFFFFFFFF20000009FFFFFFFFFFFFFFF40000
0003FFFFFFFFFFFFFFFE00000006FFFFFFFFFFFFFFFB0000
000AFFFFFFFFFFFFFFFC00000004FFFFFFFFFFFFFFFF2000
001FFFFFFFFFFFFFFFFB00000003FFFFFFFFFFFFFFFF9000
008FFFFFFFFFFFFFFFF900000001FFFFFFFFFFFFFFFFF100
00CFFFFFFFFFFFFFFFF800000000FFFFFFFFFFFFFFFFF400
00AFFFFFFFFFFFFFFFF600000000EFFFFFFFFFFFFFFFF200
002EFFFFFFFFFFFFFFF400000000CFFFFFFFFFFFFFFF8000
000023333333333333300000000023333333333333310000
000000000000000000000000000000000000000000000000
000000000000000000000000000000000000000000000000
000000000000000000000000000000000000000000000000
000000000000000000000000000000000000000000000000
000000000000000000000000000000000000000000000000
000000000000000000000000000000000000000000000000
000000000000000000000000000000000000000000000000
000000000000000000000000000000000000000000000000
000000000000000000000000000000000000000000000000
}


skinparam folderBackgroundColor<<FA5 ROAD>> White
sprite $ban [48x48/16] {
000000000000000000000000000000000000000000000000
000000000000000000000000000000000000000000000000
000000000000000000000012210000000000000000000000
0000000000000000037BEFFFFFFC95100000000000000000
0000000000000007DFFFFFFFFFFFFFFA3000000000000000
00000000000007FFFFFFFFFFFFFFFFFFFC30000000000000
000000000003DFFFFFFFFFFFFFFFFFFFFFF8000000000000
00000000006FFFFFFFFFFFFFFFFFFFFFFFFFC10000000000
0000000008FFFFFFFFFD9744458BFFFFFFFFFE2000000000
000000008FFFFFFFF9300000000005CFFFFFFFE200000000
00000006FFFFFFFA1000000000000005EFFFFFFD10000000
0000003FFFFFFFF500000000000000001BFFFFFFB0000000
000000DFFFFFFFFF5000000000000000009FFFFFF6000000
000007FFFFFFFFFFF500000000000000000AFFFFFE100000
00000FFFFFFFFFFFFF500000000000000000CFFFFF800000
00007FFFFFA5FFFFFFF500000000000000002FFFFFE00000
0000DFFFFF205FFFFFFF500000000000000009FFFFF50000
0003FFFFF90005FFFFFFF50000000000000001FFFFFB0000
0007FFFFF300005FFFFFFF5000000000000000BFFFFF0000
000BFFFFD0000005FFFFFFF5000000000000005FFFFF3000
000EFFFF900000005FFFFFFF500000000000001FFFFF6000
000FFFFF7000000005FFFFFFF50000000000000EFFFF8000
001FFFFF40000000005FFFFFFF5000000000000CFFFF9000
002FFFFF400000000005FFFFFFF500000000000CFFFFA000
002FFFFF4000000000005FFFFFFF50000000000CFFFFA000
001FFFFF50000000000005FFFFFFF5000000000DFFFF9000
000FFFFF800000000000005FFFFFFF500000000FFFFF7000
000DFFFFB000000000000005FFFFFFF50000003FFFFF5000
0009FFFFF0000000000000005FFFFFFF5000008FFFFF1000
0005FFFFF50000000000000005FFFFFFF50000DFFFFD0000
0001FFFFFC00000000000000005FFFFFFF5004FFFFF80000
0000AFFFFF500000000000000005FFFFFFF50DFFFFF20000
00003FFFFFE100000000000000005FFFFFFFAFFFFFB00000
00000CFFFFFB000000000000000005FFFFFFFFFFFF400000
000003FFFFFF9000000000000000005FFFFFFFFFFA000000
0000008FFFFFFA000000000000000005FFFFFFFFF1000000
0000000CFFFFFFC20000000000000000AFFFFFFF50000000
00000001EFFFFFFF910000000000004DFFFFFFF800000000
000000002EFFFFFFFFB5100000038DFFFFFFFF9000000000
0000000002DFFFFFFFFFFECCCDFFFFFFFFFFF80000000000
00000000000AFFFFFFFFFFFFFFFFFFFFFFFF500000000000
0000000000006EFFFFFFFFFFFFFFFFFFFFA1000000000000
000000000000018EFFFFFFFFFFFFFFFFB400000000000000
00000000000000005BFFFFFFFFFFFD820000000000000000
00000000000000000003689AA97510000000000000000000
000000000000000000000000000000000000000000000000
000000000000000000000000000000000000000000000000
000000000000000000000000000000000000000000000000
}


skinparam folderBackgroundColor<<FA5 BAN>> White
sprite $question [48x48/16] {
000000000000000000000000000000000000000000000000
000000000000000000000000000000000000000000000000
0000000000000000000269BCCCA840000000000000000000
000000000000000017DFFFFFFFFFFF920000000000000000
0000000000000006FFFFFFFFFFFFFFFFA100000000000000
00000000000001CFFFFFFFFFFFFFFFFFFE40000000000000
0000000000002DFFFFFFFFFFFFFFFFFFFFF6000000000000
000000000001DFFFFFFFFFFFFFFFFFFFFFFF600000000000
00000000000CFFFFFFFFFFFFFFFFFFFFFFFFF20000000000
00000000009FFFFFFFFFFFFFFFFFFFFFFFFFFC0000000000
0000000001FFFFFFFFFFFFFEEFFFFFFFFFFFFF6000000000
0000000001FFFFFFFFFFB400015CFFFFFFFFFFC000000000
00000000007FFFFFFFF6000000008FFFFFFFFFF100000000
000000000005FFFFFF50000000000AFFFFFFFFF500000000
0000000000002CFFF7000000000004FFFFFFFFF600000000
000000000000008B60000000000003FFFFFFFFF700000000
00000000000000000000000000000AFFFFFFFFF600000000
00000000000000000000000000008FFFFFFFFFF300000000
000000000000000000000000002BFFFFFFFFFFE000000000
00000000000000000000000008FFFFFFFFFFFF8000000000
000000000000000000000005EFFFFFFFFFFFFF1000000000
0000000000000000000000AFFFFFFFFFFFFFF40000000000
000000000000000000001CFFFFFFFFFFFFFF600000000000
00000000000000000000BFFFFFFFFFFFFFE3000000000000
00000000000000000005FFFFFFFFFFFFF910000000000000
0000000000000000000CFFFFFFFFFFFD3000000000000000
0000000000000000001FFFFFFFFFFF700000000000000000
0000000000000000002FFFFFFFFFF6000000000000000000
0000000000000000004FFFFFFFFFF0000000000000000000
0000000000000000003FFFFFFFFFD0000000000000000000
0000000000000000000AFFFFFFFF50000000000000000000
000000000000000000002333333000000000000000000000
000000000000000000000000000000000000000000000000
000000000000000000000024410000000000000000000000
000000000000000000004DFFFFA100000000000000000000
00000000000000000006FFFFFFFE20000000000000000000
0000000000000000002FFFFFFFFFC0000000000000000000
000000000000000000AFFFFFFFFFF4000000000000000000
000000000000000000EFFFFFFFFFF8000000000000000000
000000000000000000FFFFFFFFFFFA000000000000000000
000000000000000000EFFFFFFFFFF8000000000000000000
000000000000000000AFFFFFFFFFF4000000000000000000
0000000000000000003FFFFFFFFFC0000000000000000000
00000000000000000006FFFFFFFE20000000000000000000
000000000000000000004DFFFFA100000000000000000000
000000000000000000000025410000000000000000000000
000000000000000000000000000000000000000000000000
000000000000000000000000000000000000000000000000
}


skinparam folderBackgroundColor<<FA5 QUESTION>> White
sprite $skull [48x48/16] {
000000000000000000000000000000000000000000000000
000000000000000000000000000000000000000000000000
000000000000000000479BCDCCA862000000000000000000
0000000000000006BFFFFFFFFFFFFFE93000000000000000
00000000000019FFFFFFFFFFFFFFFFFFFC50000000000000
000000000008FFFFFFFFFFFFFFFFFFFFFFFC300000000000
0000000002DFFFFFFFFFFFFFFFFFFFFFFFFFF80000000000
000000005FFFFFFFFFFFFFFFFFFFFFFFFFFFFFB000000000
00000005FFFFFFFFFFFFFFFFFFFFFFFFFFFFFFFC10000000
0000005FFFFFFFFFFFFFFFFFFFFFFFFFFFFFFFFFC0000000
000003FFFFFFFFFFFFFFFFFFFFFFFFFFFFFFFFFFFA000000
00000DFFFFFFFFFFFFFFFFFFFFFFFFFFFFFFFFFFFF500000
00007FFFFFFFFFFFFFFFFFFFFFFFFFFFFFFFFFFFFFE10000
0001FFFFFFFFFFFFFFFFFFFFFFFFFFFFFFFFFFFFFFF80000
0007FFFFFFFFFFFFFFFFFFFFFFFFFFFFFFFFFFFFFFFF0000
000EFFFFFFFFFFFFFFFFFFFFFFFFFFFFFFFFFFFFFFFF6000
003FFFFFFFFFFFFFFFFFFFFFFFFFFFFFFFFFFFFFFFFFB000
007FFFFFFFFFFFFFFFFFFFFFFFFFFFFFFFFFFFFFFFFFF000
009FFFFFFFFFFD867BFFFFFFFFFFFE866AFFFFFFFFFFF200
00CFFFFFFFFF6000003EFFFFFFFF9000001CFFFFFFFFF400
00CFFFFFFFF600000002FFFFFFF900000000DFFFFFFFF500
00CFFFFFFFC0000000007FFFFFE0000000004FFFFFFFF500
00BFFFFFFF60000000001FFFFFA0000000000EFFFFFFF400
00AFFFFFFF40000000000FFFFF70000000000CFFFFFFF200
007FFFFFFF50000000000FFFFF80000000000DFFFFFFF000
003FFFFFFF90000000004FFFFFC0000000001FFFFFFFB000
000EFFFFFFF100000000BFFFFFF3000000008FFFFFFF6000
0008FFFFFFFC00000008FFFFFFFE20000005FFFFFFFF1000
0001FFFFFFFFD50003BFFFFFFFFFE600029FFFFFFFF90000
00008FFFFFFFFFFDEFFFFFFFFFFFFFFEEFFFFFFFFFF10000
00000DFFFFFFFFFFFFFFFFFFFFFFFFFFFFFFFFFFFF600000
000003FFFFFFFFFFFFFFFFFFFFFFFFFFFFFFFFFFFB000000
0000006FFFFFFFFFFFFFFFFFFFFFFFFFFFFFFFFFD1000000
00000007FFFFFFFFFFFFFFFFFFFFFFFFFFFFFFFD10000000
000000006FFFFFFFFFFFFFFFFFFFFFFFFFFFFFC100000000
0000000003EFFFFFFFFFFFFFFFFFFFFFFFFFFA0000000000
00000000002FFFFFFFFFFFFFFFFFFFFFFFFFA00000000000
00000000000CFFFFFFFFFFFFFFFFFFFFFFFF400000000000
00000000000CFFFFFFFFFFFFFFFFFFFFFFFF400000000000
00000000000EFFFFFFFEFFFFFFFFFFFFFFFF600000000000
00000000000FFFFFFF701FFFFF900EFFFFFF900000000000
00000000003FFFFFFF500FFFFF700DFFFFFFB00000000000
00000000005FFFFFFF500FFFFF700DFFFFFFD00000000000
00000000007FFFFFFF500FFFFF700DFFFFFFF00000000000
00000000006FFFFFFF500FFFFF700DFFFFFFE00000000000
000000000004555555100555552004555555100000000000
000000000000000000000000000000000000000000000000
000000000000000000000000000000000000000000000000
}


skinparam folderBackgroundColor<<FA5 SKULL>> White
sprite $add [48x48/16] {
000000000000000000000000000000000000000000000000
000000000000000000000000000000000000000000000000
000000000000000000000000000000000000000000000000
000000000000000000000000000000000000000000000000
000000000000000000000000000000000000000000000000
000000000000000000000000000000000000000000000000
000000000000000000000000000000000000000000000000
000000000000000000000000000000000000000000000000
000000000000000000000000000000000000000000000000
000000000000000000000000000000000000000000000000
0000000000000000000000FFFF0000000000000000000000
0000000000000000000000FFFF0000000000000000000000
0000000000000000000000FFFF0000000000000000000000
0000000000000000000000FFFF0000000000000000000000
0000000000000000000000FFFF0000000000000000000000
0000000000000000000000FFFF0000000000000000000000
0000000000000000000000FFFF0000000000000000000000
0000000000000000000000FFFF0000000000000000000000
0000000000000000000000FFFF0000000000000000000000
0000000000000000000000FFFF0000000000000000000000
0000000000000000000000FFFF0000000000000000000000
0000000000000000000000FFFF0000000000000000000000
0000000000FFFFFFFFFFFFFFFFFFFFFFFFFFFF0000000000
0000000000FFFFFFFFFFFFFFFFFFFFFFFFFFFF0000000000
0000000000FFFFFFFFFFFFFFFFFFFFFFFFFFFF0000000000
0000000000FFFFFFFFFFFFFFFFFFFFFFFFFFFF0000000000
0000000000000000000000FFFF0000000000000000000000
0000000000000000000000FFFF0000000000000000000000
0000000000000000000000FFFF0000000000000000000000
0000000000000000000000FFFF0000000000000000000000
0000000000000000000000FFFF0000000000000000000000
0000000000000000000000FFFF0000000000000000000000
0000000000000000000000FFFF0000000000000000000000
0000000000000000000000FFFF0000000000000000000000
0000000000000000000000FFFF0000000000000000000000
0000000000000000000000FFFF0000000000000000000000
0000000000000000000000FFFF0000000000000000000000
0000000000000000000000FFFF0000000000000000000000
000000000000000000000000000000000000000000000000
000000000000000000000000000000000000000000000000
000000000000000000000000000000000000000000000000
000000000000000000000000000000000000000000000000
000000000000000000000000000000000000000000000000
000000000000000000000000000000000000000000000000
000000000000000000000000000000000000000000000000
000000000000000000000000000000000000000000000000
000000000000000000000000000000000000000000000000
000000000000000000000000000000000000000000000000
}


skinparam folderBackgroundColor<<MATERIAL ADD>> White
sprite $edit [48x48/16] {
000000000000000000000000000000000000000000000000
000000000000000000000000000000000000000000000000
000000000000000000000000000000000000000000000000
000000000000000000000000000000000000000000000000
000000000000000000000000000000000000000000000000
000000000000000000000000000000000000000000000000
0000000000000000000000000000000002CF900000000000
000000000000000000000000000000001DFFFA0000000000
00000000000000000000000000000001DFFFFFA000000000
0000000000000000000000000000001DFFFFFFFA00000000
0000000000000000000000000000006FFFFFFFFFA0000000
00000000000000000000000000000007FFFFFFFFF9000000
000000000000000000000000000240007FFFFFFFFF000000
000000000000000000000000002EF40007FFFFFFFC000000
00000000000000000000000002EFFF40007FFFFFE1000000
0000000000000000000000001DFFFFF40007FFFE20000000
000000000000000000000001DFFFFFFF40007FE200000000
00000000000000000000002EFFFFFFFFF400062000000000
0000000000000000000001DFFFFFFFFFFF40000000000000
000000000000000000002EFFFFFFFFFFFFF4000000000000
00000000000000000001DFFFFFFFFFFFFFE2000000000000
0000000000000000001DFFFFFFFFFFFFFE20000000000000
000000000000000001DFFFFFFFFFFFFFE200000000000000
00000000000000001DFFFFFFFFFFFFFE2000000000000000
0000000000000001DFFFFFFFFFFFFFE20000000000000000
000000000000001DFFFFFFFFFFFFFE200000000000000000
00000000000001DFFFFFFFFFFFFFE2000000000000000000
0000000000001DFFFFFFFFFFFFFE20000000000000000000
000000000001DFFFFFFFFFFFFFE200000000000000000000
00000000001DFFFFFFFFFFFFFE2000000000000000000000
0000000001DFFFFFFFFFFFFFE20000000000000000000000
000000001DFFFFFFFFFFFFFE200000000000000000000000
00000001DFFFFFFFFFFFFFE2000000000000000000000000
0000001DFFFFFFFFFFFFFE20000000000000000000000000
000000EFFFFFFFFFFFFFE200000000000000000000000000
000000FFFFFFFFFFFFFE2000000000000000000000000000
000000FFFFFFFFFFFFE20000000000000000000000000000
000000FFFFFFFFFFFE200000000000000000000000000000
000000FFFFFFFFFFE2000000000000000000000000000000
000000FFFFFFFFFE20000000000000000000000000000000
000000FFFFFFFFE200000000000000000000000000000000
000000FFFFFFFE2000000000000000000000000000000000
000000000000000000000000000000000000000000000000
000000000000000000000000000000000000000000000000
000000000000000000000000000000000000000000000000
000000000000000000000000000000000000000000000000
000000000000000000000000000000000000000000000000
000000000000000000000000000000000000000000000000
}


skinparam folderBackgroundColor<<MATERIAL EDIT>> White
sprite $remove [48x48/16] {
000000000000000000000000000000000000000000000000
000000000000000000000000000000000000000000000000
000000000000000000000000000000000000000000000000
000000000000000000000000000000000000000000000000
000000000000000000000000000000000000000000000000
000000000000000000000000000000000000000000000000
000000000000000000000000000000000000000000000000
000000000000000000000000000000000000000000000000
000000000000000000000000000000000000000000000000
000000000000000000000000000000000000000000000000
000000000000000000000000000000000000000000000000
000000000000000000000000000000000000000000000000
000000000000000000000000000000000000000000000000
000000000000000000000000000000000000000000000000
000000000000000000000000000000000000000000000000
000000000000000000000000000000000000000000000000
000000000000000000000000000000000000000000000000
000000000000000000000000000000000000000000000000
000000000000000000000000000000000000000000000000
000000000000000000000000000000000000000000000000
000000000000000000000000000000000000000000000000
000000000000000000000000000000000000000000000000
0000000000FFFFFFFFFFFFFFFFFFFFFFFFFFFF0000000000
0000000000FFFFFFFFFFFFFFFFFFFFFFFFFFFF0000000000
0000000000FFFFFFFFFFFFFFFFFFFFFFFFFFFF0000000000
0000000000FFFFFFFFFFFFFFFFFFFFFFFFFFFF0000000000
000000000000000000000000000000000000000000000000
000000000000000000000000000000000000000000000000
000000000000000000000000000000000000000000000000
000000000000000000000000000000000000000000000000
000000000000000000000000000000000000000000000000
000000000000000000000000000000000000000000000000
000000000000000000000000000000000000000000000000
000000000000000000000000000000000000000000000000
000000000000000000000000000000000000000000000000
000000000000000000000000000000000000000000000000
000000000000000000000000000000000000000000000000
000000000000000000000000000000000000000000000000
000000000000000000000000000000000000000000000000
000000000000000000000000000000000000000000000000
000000000000000000000000000000000000000000000000
000000000000000000000000000000000000000000000000
000000000000000000000000000000000000000000000000
000000000000000000000000000000000000000000000000
000000000000000000000000000000000000000000000000
000000000000000000000000000000000000000000000000
000000000000000000000000000000000000000000000000
000000000000000000000000000000000000000000000000
}


skinparam folderBackgroundColor<<MATERIAL REMOVE>> White


sprite $aCapability jar:archimate/strategy-capability
sprite $aFunction jar:archimate/business-function
sprite $aBuildingBlock jar:archimate/function
sprite $aPlatform jar:archimate/component
sprite $aSystem jar:archimate/application-component
sprite $aContainer jar:archimate/application-component
sprite $aMilestone jar:archimate/implementation-plateau
sprite $aProject jar:archimate/implementation-workpackage
sprite $aInteraction jar:archimate/application-interaction
sprite $aDataEntity jar:archimate/application-data-object

skinparam wrapWidth 250


skinparam rectangle<<system>> {
    Shadowing false
    StereotypeFontSize 0
    FontColor #444444
    BorderColor #444444
    BorderStyle dashed
}

skinparam rectangle<<platform>> {
    Shadowing false
    StereotypeFontSize 0
    FontColor #00008B
    BorderColor #00008B
    BorderStyle dotted
}

skinparam rectangle<<integration>> {
    Shadowing false
    StereotypeFontSize 0
    FontColor #444444
    BorderColor #444444
    BorderStyle dashed
}

skinparam rectangle<<strategy-capability>> {
    RoundCorner 25
}

skinparam rectangle<<#Black>> {
    BorderColor #Black
    BorderThickness 1
}

skinparam rectangle<<#Blue>> {
    BorderColor #Blue
    BorderThickness 5
}

skinparam rectangle<<#Green>> {
    BorderColor #Green
    BorderThickness 5
}

skinparam rectangle<<#Orange>> {
    BorderColor #Orange
    BorderThickness 5
}

skinparam rectangle<<#Red>> {
    BorderColor #Red
    BorderThickness 5
}

skinparam rectangle<<#Black>> {
    BorderColor #Black
    BorderThickness 1
}


    rectangle "==BatCave Management System" <<$aSystem>><<system>> as it_system_batcave_management_system {
        rectangle #LightSteelBlue "Nemesis Database\n\n<size:12>[database: MongoDB]</size>\n\n <size:10>A huge database with all the files of supervillains around the world</size>" <<$aContainer>><<#Black>> as it_container_nemesis_database
        rectangle #LightSteelBlue "Nemesis Microservice\n\n<size:12>[microservice: Kubernetes, Java]</size>\n\n <size:10>The single point of truth for supervillains</size>" <<$aContainer>><<#Green>> as it_container_nemesis_microservice
        rectangle #LightSteelBlue "Batmobile Platform Rotation Microservice\n\n<size:12>[microservice: Kubernetes, Java]</size>\n\n <size:10>Rotates the Batmobile platform</size>" <<$aContainer>><<#Black>> as it_container_batmobile_platform_rotation_microservice
        rectangle #LightSteelBlue "Batcave Terminal\n\n<size:12>[UI: React]</size>\n\n <size:10>Impressive user interface used to manage every aspect of the BatCave Management System</size>" <<$aContainer>><<#Green>> as bcms_ui
    }


    archimate #BUSINESS "Bruce Wayne" <<business-actor>> as actor_bruce_wayne




            bcms_ui ..>> it_container_nemesis_microservice : "provides UI for"



            it_container_nemesis_microservice ..>> it_container_nemesis_database : "fetches villain information"



            actor_bruce_wayne ..>> bcms_ui : "uses"



            bcms_ui ..>> it_container_batmobile_platform_rotation_microservice : "provides rotation button for"



    legend
    |<back:#Red><color:#Red>X</color></back>| Removed since last point in time |
    |<back:#Green><color:#Green>X</color></back>| Added since last point in time |
    |<back:#Orange><color:#Orange>X</color></back>| Phaseout |
    endlegend
@enduml

PlantUML version 1.2021.13(Mon Nov 01 12:38:45 CET 2021)
(GPL source distribution)
Java Runtime: OpenJDK Runtime Environment
JVM: OpenJDK 64-Bit Server VM
Default Encoding: UTF-8
Language: nl
Country: BE
--></g></svg>